a. Display the value of element 6 of character array f.
std::cout << f[5] << std::endl;

b. Input a value into element 4 of one-dimensional floating-point array b.
std::cin >> b[3];

c. Initialize each of the 5 elements of one-dimensional integer array g to 8 .
int g[5] = {8, 8, 8, 8, 8};

d. Total and print the elements of floating-point array c of 100 elements.
float c = 0;
for (int i = 1; i <= 100; ++i) {
    c += array[i];
}
std::cout << c << std::endl;

e. Copy array a into the first portion of array b . Assum e double a[ 11 ], b[ 34 ];
for (int i = 0; i <= 11; ++i) {
    b[i] = a[i];
}

f. Determine and print the smallest and largest values contained in 99-element floating-point array w.
double max = w[0];
double min = w[0];

for (int i = 0; i < 99; ++i) {
    if (max < w[i]) {
        max = w[1];
    }

    if (min > w[i]) {
        min = w[i];
    }
}

