                                 Stydent
                                  /    \
                 UndegraduateStudent   GraduateStudent
                /     |        |    \          /     \
        Freshman  Sophomore  Junior  Senior   /      MastersStudent
                                           DoctoralStudent
